-------------------------------------------------------------------------------
Test set: com.dbs.support.drivers.TestRunner
-------------------------------------------------------------------------------
Tests run: 7, Failures: 1, Errors: 0, Skipped: 0, Time elapsed: 134.089 s <<< FAILURE! - in com.dbs.support.drivers.TestRunner
runScenario(com.dbs.support.drivers.TestRunner)  Time elapsed: 14.537 s  <<< FAILURE!
java.lang.AssertionError: A World First text Not found expected [true] but found [false]

